%YAML 1.1
%TAG !u! tag:unity3d.com,2011:
--- !u!74 &7400000
AnimationClip:
  m_ObjectHideFlags: 0
  m_PrefabParentObject: {fileID: 0}
  m_PrefabInternal: {fileID: 0}
  m_Name: SurvivorReloadHandgun
  serializedVersion: 6
  m_Legacy: 0
  m_Compressed: 0
  m_UseHighQualityCurve: 1
  m_RotationCurves: []
  m_CompressedRotationCurves: []
  m_PositionCurves: []
  m_ScaleCurves: []
  m_FloatCurves: []
  m_PPtrCurves:
  - curve:
    - time: 0
      value: {fileID: 21300000, guid: 20efc5175d9fa4547a29b7eb0b6a7a01, type: 3}
    - time: .0833333358
      value: {fileID: 21300000, guid: 5065bcee770754445a8062461408fe04, type: 3}
    - time: .166666672
      value: {fileID: 21300000, guid: ce091b0be89128e48b343233642f5c81, type: 3}
    - time: .25
      value: {fileID: 21300000, guid: 067fe01d5d5b1b34e8b0ddc8c8a8abea, type: 3}
    - time: .333333343
      value: {fileID: 21300000, guid: 5bf81202c8cea0a49948698056246150, type: 3}
    - time: .416666657
      value: {fileID: 21300000, guid: 11e0ca1362fa2f347a75bc7f910f7900, type: 3}
    - time: .5
      value: {fileID: 21300000, guid: ce26f28684b8a9c459797d5a0d1ecac6, type: 3}
    - time: .583333313
      value: {fileID: 21300000, guid: fb553141916c9dc4c91b4ff7c812e1a7, type: 3}
    - time: .666666687
      value: {fileID: 21300000, guid: eb768827f89e2a34f892b9bdc3d34690, type: 3}
    - time: .75
      value: {fileID: 21300000, guid: b9221a166766a5d4590fa452693543a2, type: 3}
    - time: .833333313
      value: {fileID: 21300000, guid: 27815e9f7cd65e84c822d32e25921e4a, type: 3}
    - time: .916666687
      value: {fileID: 21300000, guid: beffa331855f47b4183889a9e7240ebd, type: 3}
    - time: 1
      value: {fileID: 21300000, guid: f652644c17ece6f47aaff9d1250cfcac, type: 3}
    - time: 1.08333337
      value: {fileID: 21300000, guid: 77a0019239f12b245adc0a2e10f4502c, type: 3}
    - time: 1.16666663
      value: {fileID: 21300000, guid: f5bd6a3ecefa8a5478a8fdba62ab140e, type: 3}
    attribute: m_Sprite
    path: 
    classID: 212
    script: {fileID: 0}
  m_SampleRate: 12
  m_WrapMode: 0
  m_Bounds:
    m_Center: {x: 0, y: 0, z: 0}
    m_Extent: {x: 0, y: 0, z: 0}
  m_ClipBindingConstant:
    genericBindings:
    - path: 0
      attribute: 0
      script: {fileID: 0}
      classID: 212
      customType: 23
      isPPtrCurve: 1
    pptrCurveMapping:
    - {fileID: 21300000, guid: 20efc5175d9fa4547a29b7eb0b6a7a01, type: 3}
    - {fileID: 21300000, guid: 5065bcee770754445a8062461408fe04, type: 3}
    - {fileID: 21300000, guid: ce091b0be89128e48b343233642f5c81, type: 3}
    - {fileID: 21300000, guid: 067fe01d5d5b1b34e8b0ddc8c8a8abea, type: 3}
    - {fileID: 21300000, guid: 5bf81202c8cea0a49948698056246150, type: 3}
    - {fileID: 21300000, guid: 11e0ca1362fa2f347a75bc7f910f7900, type: 3}
    - {fileID: 21300000, guid: ce26f28684b8a9c459797d5a0d1ecac6, type: 3}
    - {fileID: 21300000, guid: fb553141916c9dc4c91b4ff7c812e1a7, type: 3}
    - {fileID: 21300000, guid: eb768827f89e2a34f892b9bdc3d34690, type: 3}
    - {fileID: 21300000, guid: b9221a166766a5d4590fa452693543a2, type: 3}
    - {fileID: 21300000, guid: 27815e9f7cd65e84c822d32e25921e4a, type: 3}
    - {fileID: 21300000, guid: beffa331855f47b4183889a9e7240ebd, type: 3}
    - {fileID: 21300000, guid: f652644c17ece6f47aaff9d1250cfcac, type: 3}
    - {fileID: 21300000, guid: 77a0019239f12b245adc0a2e10f4502c, type: 3}
    - {fileID: 21300000, guid: f5bd6a3ecefa8a5478a8fdba62ab140e, type: 3}
  m_AnimationClipSettings:
    serializedVersion: 2
    m_StartTime: 0
    m_StopTime: 1.25
    m_OrientationOffsetY: 0
    m_Level: 0
    m_CycleOffset: 0
    m_LoopTime: 1
    m_LoopBlend: 0
    m_LoopBlendOrientation: 0
    m_LoopBlendPositionY: 0
    m_LoopBlendPositionXZ: 0
    m_KeepOriginalOrientation: 0
    m_KeepOriginalPositionY: 1
    m_KeepOriginalPositionXZ: 0
    m_HeightFromFeet: 0
    m_Mirror: 0
  m_EditorCurves: []
  m_EulerEditorCurves: []
  m_HasGenericRootTransform: 0
  m_HasMotionFloatCurves: 0
  m_GenerateMotionCurves: 0
  m_Events: []
